…
``` r
# Task 2
df3 %>% 
  group_by(SUBJ) %>% 
  mutate(mTOKENCHI = mean(TOKENS_CHI, na.rm = T))
```

    ## # A tibble: 372 x 21
    ## # Groups:   SUBJ [66]
    ##     SUBJ ADOS1 SOCIALIZATION1 MULLENRAW1 EXPRESSIVELANGR… VISIT ETHNICITY
    ##    <dbl> <dbl>          <dbl>      <dbl>            <dbl> <dbl> <chr>    
    ##  1     1    15            104         NA               NA     1 White    
    ##  2     2     0            108         28               14     1 White    
    ##  3     2     0            108         28               14     2 White    
    ##  4     2     0            108         28               14     3 White    
    ##  5     2     0            108         28               14     4 White    
    ##  6     2     0            108         28               14     5 White    
    ##  7     2     0            108         28               14     6 White    
    ##  8     3    13             85         34               27     1 White    
    ##  9     3    13             85         34               27     2 White    
    ## 10     3    13             85         34               27     3 White    
    ## # … with 362 more rows, and 14 more variables: DIAGNOSIS <chr>,
    ## #   GENDER <chr>, AGE <dbl>, ADOS <dbl>, SOCIALIZATION <dbl>,
    ## #   MULLENRAW <dbl>, EXPRESSIVELANGRAW <dbl>, MOT_MLU <dbl>,
    ## #   CHI_MLU <dbl>, TYPES_MOT <dbl>, TYPES_CHI <dbl>, TOKENS_MOT <dbl>,
    ## #   TOKENS_CHI <dbl>, mTOKENCHI <dbl>
…
